Projeto Versão Final
…
# Será unido os dados do tipo de anotacao e a quantidade de macros
# será criadno um campo com o nome da anotacao nd d e a quantidade de macros

dados_tabela2_NaoDisciplinado = dados_tabela2 %>%
  mutate(TipoAnotacao = "Não Disciplinada", Ocorr_nd_d = Ocurr_nd) %>%
  select(Project, TipoAnotacao, Ocorr_nd_d)

dados_tabela2_Disciplinado = dados_tabela2 %>%
  mutate(TipoAnotacao = 'Disciplinada', Ocorr_nd_d = Ocurr_d) %>%
  select(Project, TipoAnotacao, Ocorr_nd_d)

dados_tabela2_anotacoes = bind_rows(dados_tabela2_NaoDisciplinado, dados_tabela2_Disciplinado)
dados_tabela2_anotacoes

## # A tibble: 74 x 3
##    Project  TipoAnotacao     Ocorr_nd_d
##    <chr>    <chr>                 <dbl>
##  1 BfgMiner Não Disciplinada          0
##  2 Busybox  Não Disciplinada          1
##  3 Cgminer  Não Disciplinada          1
##  4 Contiki  Não Disciplinada          1
##  5 CVS      Não Disciplinada          4
##  6 Dia      Não Disciplinada          1
##  7 DynamRIO Não Disciplinada          1
##  8 Etlegacy Não Disciplinada          2
##  9 FreeBSD  Não Disciplinada          0
## 10 Fvwm     Não Disciplinada          4
## # ... with 64 more rows
…
#        coord_flip()

dados %>% 
  count(Project)

## # A tibble: 37 x 2
##    Project      n
##    <chr>    <int>
##  1 BfgMiner     1
##  2 Busybox      1
##  3 Cgminer      1
##  4 Contiki      1
##  5 CVS          1
##  6 Dia          1
##  7 DynamRIO     1
##  8 Etlegacy     1
##  9 FreeBSD      1
## 10 Fvwm         1
## # ... with 27 more rows
…
